<h2>Tableau récap</h2>
<table class="table table-hover">
  <thead class="thead-light">
    <tr>
      <th>Nom de l'article</th>
      <th>Quantités</th>
      <th>Nom du rayon</th>
      <th>Nom du étagère</th>
      <th>Nom du projet</th>
    </tr>
  </thead>
  <tbody>
      <?php while (  $donnees = $reponseItemTotaux->fetch()) { ?>
      <tr>
        <td><?php echo $donnees['nom_article']; ?></td>
        <td><?php echo $donnees['nombre_total']; ?></td>
        <td><?php echo $donnees['nom_rayon']; ?></td>
        <td><?php echo $donnees['nom_rack']; ?></td>
        <td><?php echo $donnees['nom_projet']; ?></td>
      </tr>
      <?php } ?>
  </tbody>
</table>

fffazezeddeedezdzdzde
<!--  fin premier tableau / Début Ajout commande-->


<h2>Ajouter une commande</h2>
<form class="" action="index.html" method="post">
  <div class="form-row">
    <div class="form-group col-sm-3 my-1">
      <label for="DateCommande">Date de la commande</label>
      <input type="date" class="form-control" id="DateCommande">
    </div>
    <div class="form-group col-sm-3 my-1">
      <label for="NomFournisseur">Nom fournisseur</label>
      <select class="form-control" id="NomFournisseur">
        <?php while (  $donnees = $reponseFournisseur->fetch()) { ?>
          <option><?php echo $donnees['nom_fournisseur']; ?></option>
        <?php } ?>
      </select>
    </div>
  </div>
</form>
