,,,Inventaire  stock au 30/09/2018,,
,,,,,
Valeur du stock au 30/09/2018,"48451,77062",,,,
Valeur du stock au 30/09/2018,"52126,48",,,,
Valeur du stock au 30/06/2018,"57172,45",,,,
Valeur du stock au 31/12/17,"28273,73",,,,
Valeur du stock au 30/09/17,"56520,61062",,,,
,,,,,
variation,"28898,72",,,,
,,,TOTAL HT,,"48451,77062"
Désignation,QT,Année ,Valeur,Valeur,Total
,,achat,achat,au 30/09/2018,
32MX795F512LT80I composants SAC CGX,"1,5",2016,"11,25","11,25","11,25"
aero vd black 400ml,6,2018,"9,13","9,13","54,78"
"Adaptateur ssd/hdd 2,5/3,5 startech. Com",13,2018,,,
ADHESIF ANTI VIBRATION 10X10X3,2,2016,"27,54","27,54","55,08"
Alim ATX 250W pour rack 2U,14,2012,45,22,308
alim pc divers,60,2018,30,30,1800
alim 5V 1A,100,2018,"3,49","3,49",349
ALIM OPENFRAME ACE-870A ,5,2011,25,15,75
Alimentation ATX Be-Quiet 500W,1,2016,65,50,50
ALIMENTATION POUR CARTE KINO-DH610,6,2016,23,23,138
ARDUINO PROTO SHIELD REV3 ASSEMBLED,1,2017,"13,05","13,05","13,05"
ARDUINO UNO SMD rev3,2,2017,21,21,42
ASUS ZI 70I-PRO GAMING,1,2017,"124,94","124,94","124,94"
AXES PALIERS,4,2015,15,15,60
"Batterie Li-Ion 3,7V 2900mA ( CGX )",6,2015,9,9,54
BOITIER carte a puce ,70,2018,10,10,700
BOITIER IEI IAI860 SHOEBOX,1,2005,25,5,5
BOITIER INFODIP SHOEBOX,5,2013,50,30,150
BOITIER MINI ITX,2,2016,45,40,80
BOITIER pour Whithbox CGX ,14,2015,35,35,490
BORNE A SERTIR MICROFIT FEMELLE 20-24AWG,80,2017,"0,157","0,157","12,56"
BRAS LONG MODULAIRE LINDY POUR ECRAN NOIR - B00MRN5Q5W,1,2018,"52,31","52,31","52,31"
BROTHER ETIQUETTE RONDE (boite de1200),1,2017,"20,59","20,59","20,59"
BUS PASSIF 14 SLOT IEI,2,2017,50,50,100
BUS PASSIF 8 SLOTS BP-PCI-8S (SAPRATIN),5,2018,30,30,150
"CABLE 1,5 Long : 100m vert/Jaune",1,2015,125,100,100
CABLE 15 FILS AWG 24,50,2012,1,"0,8",40
cable alim sata,90,2018,10,10,900
"CABLE HDMI 2,0/F 4K 60Hz 10m",2,2018,"13,33","13,33","26,66"
cable  sata,300,2018,"6,89","6,89",2067
CABLE 2 FILS,1,2016,"85,5","85,5","85,5"
Cable 32205-003800-300-RS  ,3,2015,"4,8","4,8","14,4"
Cable Y ps2,70,2018,2,2,140
CABLE HDMI - Panel 75,4,2016,"3,23","3,23","12,92"
Cable header 4,200,2018,"0,83","0,83",166
Câble slot IDC26 D25 parallèle,21,2017,"1,9","1,9","39,9"
"CABLE VERT 0,75 100M",1,2015,65,65,65
cable interne usb,42,2018,"3,34","3,34","140,28"
Câbles 2x USB pour rack 4U,7,2017,9,9,63
"Cables secteur EUR 1,8 m",10,2018,"1,15","1,15","11,5"
Câbles secteur noir 2 m,5,2018,"1,9","1,9","9,5"
CAPOR METAL 75'',1,2018,727,727,727
CAPOT SUB-D 9PT BLEU,3,2013,"10,96",5,15
Carte backlight LED,3,2016,80,80,240
"CARTE BC-199 USB 2,0 kit",8,2016,5,5,40
Carte électronique CGX Batch 2,17,2013,"287,48",80,1360
Carte électronique CGX Batch 3,3,2015,"287,48",80,240
CARTE ELECTRONIQUE MEDUSA,6,2013,850,150,900
Carte GF STRIX GAMING 1080 - STOCK ITECA,1,2016,"617,96","617,96","617,96"
CARTE GRAPHIQUE GTX 790,1,2017,47,47,47
CARTE IEI IMBA-8550,12,2011,145,55,660
CARTE IEI KINO-DQM87,1,2015,631,500,500
CARTE IEI NANO D25501,1,2012,220,100,100
CARTE IEI PM-LX2-800W,1,2015,230,180,180
CARTE IEI WAFER D5252,2,2016,235,235,470
CARTE IEI WSB-9454-R40,2,2017,218,218,436
CARTE IEI WSB945GSE,1,2017,225,225,225
CARTE IEI WSB-G41A,2,2017,218,218,436
CARTE IEI WSB-Q870-i2,1,2015,298,250,250
CARTE INTEL DM2700,2,2013,72,50,100
CARTE INTEL DM2800,2,2013,85,50,100
CARTE MERE ASUS MAXIMUS,1,2016,"195,12","195,12","195,12"
carte leonardo avec embases,2,2018,"17,44","17,44","34,88"
CARTE MERE ASUS Z270 PRIME,1,2017,"118,82","118,82","118,82"
Carte mère Gigabyte MiniItx,1,2016,115,92,92
"Carte power 75"" Stock Iteca",1,2016,55,55,55
Carte réseau ethernet (PPC75),1,2017,"13,56","13,56","13,56"
Carte RGB v-by-one Stock ITECA,1,2016,65,65,65
Cartes RGB + LVDS pour écran AUO 17-19,5,2016,35,28,140
CDSOT236-0504LC composants SAC CGX,6,2016,"1,53","1,53","9,18"
CLAVIER KSK-6001UELX FR AZERTY USB,0,2015,19,25,0
CLAVIER KSK-6001UELX UK QWERTY USB,0,2016,35,35,0
CLAVIER LOGITECH WIRELESS MK270,1,2017,"24,86","24,86","24,86"
CLAVIER divers simple ,10,2018,"6,5","6,5",65
CLAVIER USB FR,1,2016,"6,5","6,5","6,5"
CLE USB 16 GB,1,2016,"3,85","3,85","3,85"
CLE USB 32 GB,0,2015,"5,45","5,45",0
COLONNETTES M3X10 plastic,22,2014,"0,1","0,1","2,2"
COLONNETTES M3X15plastic,11,2015,"0,15","0,15","1,65"
COLONNETTES M3X20 plastic,42,2014,"0,1","0,1","4,2"
COLONNETTES M4 X 10 Laiton,100,2017,"0,22","0,22",22
CONVERTISSEUR VOITURE 12V/220V,6,2018,32,32,192
CONDENSATEUR CERAMIQUE SMD 0603 COG 100V,40,2017,"0,042","0,042","1,68"
CONDENSATEUR CERAMIQUE SMT,95,2017,"0,052","0,052","4,94"
CONDO CERAMIQUE COG 063 50V 18PF,42,2017,"0,007","0,007","0,294"
"conductive Bench Floor Mat 1,2x0,6mx2mm",1,2018,"68,54","68,54","68,54"
CONTROLEUR USB DALLES,98,2012,18,18,1764
Cooler kit LGA1150 65W for chassis 1U IEI,2,2017,34,34,68
"cordon 1,8 fiche banane-pression 10 mm ",1,2018,"12,76","12,76","12,76"
Cordon CAT 6 RJ45 FTP NOIR 15m,2,2017,"13,9","13,9","27,8"
Cordon CAT 6 RJ45 FTP NOIR 20m,2,2017,"16,9","16,9","33,8"
Cordon CAT 6 RJ45 S-STP NOIR 2m,10,2017,"2,5","2,5",25
Cordon CAT 6 RJ45 FTP NOIR 1m,5,2017,"1,7","1,7","8,5"
"CORDON HDMI MALE/MINI HDMI MALE (1,5m)",3,2018,"11,58","11,58","34,74"
"CORE I7-6700 3,40 GHZ",1,2017,"265,87","265,87","265,87"
"Cosse à oeillet non isolée M3 0,5-1,5mm2",85,2015,"0,292","0,292","24,82"
"Cosse à oeillet non isolée M4 0,5-1,5mm2",37,2015,"0,31","0,31","11,47"
"Cosse à oeillet non isolée M5 0,5-1,5mm2",65,2015,"0,047",5,325
Cosses à sertir Jaune Diam 4 mm,17,2013,"0,77","0,77","13,09"
Cosses à sertir Jaune Diam 5 mm,5,2015,"0,77","0,77","3,85"
CPU INTEL E7500,1,2016,75,75,75
CPU INTEL i3 -2200,3,2016,125,125,375
CPU INTEL i7-6700 ,0,2016,"287,96","287,96",0
CR2032/1,2,2017,"1,81","1,81","3,62"
dalle 75'' lc 750ege-fhkm,1,2018,1350,1350,1350
"DALLE TACTILE IR 47"" WIDE  USB",1,2016,150,150,150
"DALLE TACTILE RESISTIVE 10,4""",2,2012,100,325,650
"Dalles TACTILE IR 21"" wide",1,2013,55,55,55
"Dalles TACTILE Résistive 8""",3,2012,20,80,240
Data Color Spyder 5 Pro S5P100,1,2017,"132,4",80,80
DC power cable mount plug 1.4mm 1A  3m,1,2016,"1,87","1,87","1,87"
"Diode TVS, SMBJ13A, composants SAC CGX",10,2016,"0,56","0,56","5,6"
Disque dur 1 OTB (KUKA),2,2018,"36,17","36,17","72,34"
DOUBLE FACE MOUSSE PE/EVA NOIRE,1,2016,"22,48","22,48","22,48"
"DUAL 2,5I SATA HDD/SSD TO3,5IN ACCS",2,2017,"6,98","6,98","13,96"
Dalle 55 pouce ,2,2018,1000,1000,2000
"D-link 4 port usb 2,0 hub ",1,2018,,,
DVD SATA SAPPHIRE TECHNOLOGY 11166-08-20R ,2,2016,"26,8","21,44","42,88"
"ECRAN LED AUO   8""",2,2012,85,50,100
"ECRAN LED AUO 15""",2,2013,183,100,200
"ECRAN LED AUO 17""",2,2018,85,89,178
"ECRAN TFT Chimei 10,4"" ",2,2012,85,50,100
"ECRAN TFT Chimei 12""1 ",2,2012,260,50,100
étagere PPC PAC-42GHW,4,2018,100,100,400
"étagere PPC IAC-C860FA V1,1A",5,2018,100,100,500
Ecrous Hexagonaux en Acier zingué M3,1,2016,"6,4","6,4","6,4"
Ecrous Hexagonaux en Acier zingué M4,1,2016,"6,55","6,55","6,55"
Ecrous Hexagonaux en Acier zingué M5,1,2016,"6,89","6,89","6,89"
Ecrous Hexagonaux en Acier zingué M8,1,2016,"7,28","7,28","7,28"
EMBASE A ENTREE VERTICALE  3 CONTACTS,8,2017,"0,8","0,8","6,4"
embase de fixation mb3a noir 19x19mm ,3,2018,"16,02","16,02","48,06"
EMBASE  USBB,70,2018,2,2,140
EMBASE SPDIF,3,2017,"16,78","16,78","50,34"
ENTRETOISE INTERNE / EXTERNE M3x20mm  (sac de 50),"0,6",2017,"13,23","13,23","7,938"
Entretoise Interne / Interne M3 x 8 mm,85,2016,"0,08","0,08","6,8"
etiquettes adresse petites dk boite de 800,1,2018,"16,6","16,6","16,6"
"FICHE 1718677 FA1-NDRP-PCB-9 PLUG, FAKRA VIOLET",84,2013,"2,35",1,84
"Fuse, 1206, fast acting, 12A, 24Vdc composants SAC CGX",10,2016,"2,91","2,91","29,1"
"gaine spirale 1,6mm ",1,2018,"29,73","29,73","29,73"
GAINE THERMO VRAC,1,2016,450,450,450
"GH-414SRW-1,14S",4,2017,141,141,564
HD 250 GB SATA 3'' ½   ,1,2015,"49,4","49,4","49,4"
HD 500 GB SATA,4,2016,"37,55","37,55","150,2"
HD BARRACUDA 1TB SATA,1,2016,"46,02","46,02","46,02"
HD LOCK CITH LOCKING CONNECTOR 5m,2,2017,"9,12","9,12","18,24"
HD USB Sauvegarde 500 GB,3,2015,"56,82","56,82","170,46"
"HEXAGON HEAD HIGH TENSILE BOLT,M8x120mm (sac de 25)","0,7",2017,"35,65","35,65","24,955"
High Speed with Ethernet HDMI lead 5m,1,2016,"17,39","17,39","17,39"
INTEL 7260.HMWWB.R  WIFI MODULE ,1,2015,"19,89","19,89","19,89"
Interrupteur à bascule 2RT noir on-off,4,2016,"2,9","2,9","11,6"
Interrupteur ROCK. BIP. ON/OFF,10,2016,"1,66","1,66","16,6"
"Interrupteur rocker 1NO noir, 0/-",8,2016,"0,58","0,58","4,64"
IP67 Cat 5e RJ45 panel PCB mount Jack,1,2016,"35,25","35,25","35,25"
IP67 usb 2.0 panel PCB mount Jack,4,2016,"35,25","35,25",141
JOINT POUR MEDUSA KIT,1,2014,110,110,110
KINGSTON DT101G2/16GB ,6,2015,"4,65","4,65","27,9"
Kit ecran ,5,2017,50,50,250
"Kit de montage NOIR 3""½ -> 5""¼ lecteur de disquettes",1,2017,"1,35","1,35","1,35"
KIT HP pour les panels BST,2,2016,"33,02","33,02","66,04"
Kit VGA M190ETN01,3,2016,30,30,90
Lecteur disquettes ,35,2018,20,20,700
Logitech c270 webcam,1,2018,,,
LOGICIEL WINDOWS 7 PRO 64 BITS  ,1,2016,115,115,115
MAIN BOARD PE01 PINEVIEW,2,2017,250,250,500
MATERIEL EMBALLAGE RAJA,1,2014,350,300,300
Mémoire DDR3 8GB pour PanelPC USENDA,4,2015,"37,56",35,140
Mémoire RAM DDR2 1 GB PC667 ,8,2017,17,17,136
Mémoire RAM DDR3 16 GB Panel,6,2016,"37,5","37,5",225
"MIKROBUS CLICK ADD-ON BOARD RS485 3,3V",1,2017,"16,12","16,12","16,12"
MINI PCI-E GIGGABIT ETHERNET CONTROLLER CARD ADAPTORW/IO,2,2017,35,35,70
MODULE NV08-CMS,1,2015,45,45,45
MONITEUR LCD- IEI DM 170G,1,2018,85,85,85
MODULE TELIT HE863-EUD,13,2015,70,35,455
Nappe IDE,110,2018,2,2,220
"NUF2042XV6T1G, USB UPSTR FTR IN composants SAC CGX",1,2016,"14,72","14,72","14,72"
Open office ,3,2018,,,
"OSCILLATEUR A QUARTZ 11,0592 MHz XO 3,3V",2,2017,"1,07","1,07","2,14"
"OSCILLATEUR A QUARTZ 14,31818 MHz XO 3,3V",2,2017,"1,76","1,76","3,52"
"OSCILLATEUR A QUARTZ 20,000 MHz XO 3,3V",1,2017,"2,21","2,21","2,21"
"OSCILLATEUR A QUARTZ 14,7456 MHz XO 3,3V",2,2017,"2,21","2,21","4,42"
Patin boitier auto collant X4,60,2018,"0,7","0,7",42
Panel PC POINDUS VARIPPC-715 250 nits,1,2013,750,,0
panel pc 15 pouce bst ,1,2018,85,85,85
panel pc 17 pouce tv/lcd monitor,1,2018,150,150,150
Panel PC POINDUS VARIPPC-715 300 nits,1,2016,"715,3846154","715,3846154","715,3846154"
Port parallèles ,5,2018,,,
"PORTE-PILE BOUTONS,PCB, 24 mm",4,2017,"2,17","2,17","8,68"
Power switch bascul,21,2018,"0,5","0,5","10,5"
Power switch poussoir ,850,2018,"2,7","2,7",2295
"QUARTZ SMD 8,000MHz 3,5x6mm",8,2017,"1,398","1,398","11,184"
"GH-402 SRS , 4U Black,14slots ohne netzt ",2,2018,133,133,266
"BC-199, USB 2,0 Kit mit kable f GH-xxx",2,2018,7,7,14
Rack 1 U noir JOY 620 clavier ,1,2013,100,80,80
Rack 3U Noir GH313 SRW,1,2013,117,60,60
RACK SSD noir,1,2016,"14,06","14,06","14,06"
RACK SSD SAPRATIN JJ-2225TL,20,2018,"13,37","13,37","267,4"
Radiateur/Ventilateur LGA 1150 très léger(200grs) ALU 54W,2,2017,25,25,50
"Rallonge usb 3,0 AA ",1,2018,"8,25","8,25","8,25"
RAM 1GB 667MHz,4,2017,17,17,68
RAM 2 GB 1066,2,2017,"24,64","24,64","49,28"
REPETEUR WIFI KIT DUO 1700 Mbit/s,1,2017,"161,06","161,06","161,06"
"Réseau 5 diodes transils unidir. 6,4V composants SAC CGX",20,2016,"1,89","1,89","37,8"
"Ring Terminal VERSAKRIMP M3,5",1,2016,"19,05","19,05","19,05"
Riser Pcie 16x,3,2017,55,55,165
"Rivet en plastique noir Ø4-4,1mm",1,2016,"15,73","15,73","15,73"
RONDELLE EVENTAIL M3,150,2016,"2,96","2,96",444
RONDELLE INOX M2,66,2014,"0,194","0,194","12,804"
RONDELLE INOX M3,52,2014,"0,19","0,19","9,88"
RONDELLE INOX M8,5,2013,"4,26","4,26","21,3"
RONDELLE NYLON M3,51,2016,"2,22","2,22","113,22"
ROUND PLASTIC SPACERS 6/5,1,2016,"10,92","10,92","10,92"
ROULETTE 360,30,2018,"19,76","19,76","592,8"
ROUTEUR MOBILE WIRELESS N150 4G LTE ,1,2017,125,125,125
RUBAN 9088 50MM x 50M,1,2016,"23,95","23,95","23,95"
ruban polychloroprene 10m,1,2018,"11,73","11,73","11,73"
RUGGEDTECH ert-w3 docking station ,1,2018,65,65,65
resistances electroniques,1000,2018,1,1,1000
RUBAN DOUBLE FACE 3M,1,2016,65,65,65
RH-40 ,100,2018,5,5,500
Rh-06F,50,2018,5,5,250
RUBAN POLYCHLOROPRENE 10M,1,2016,"11,61","11,61","11,61"
scie cloche p33,1,2018,"13,67","13,67","13,67"
"SERINGUE D'EPOXY CHARGE METAL,25ml",1,2017,"8,34","8,34","8,34"
"Serre-câbles, 100 x 2,5, noir",8,2018,"5,61","5,61","44,88"
"Serre-câbles, 200 X2,5 noir sac de 100",2,2018,,,
"Serre-câbles, 300X5 blanc",850,2016,"0,012","0,012","10,2"
serre joint 50x150,5,2018,"4,66","4,66","23,3"
Socket 2 USB Boitier pc,400,2018,"6,8","6,8",2720
Socket 2 rs 232 boitier pc,80,2018,"0,1","0,1",8
Sochet 1 rs 232 boitier pc ,70,2018,"0,05","0,05","3,5"
Socket ps2 chassis indus blanc,200,2018,2,2,400
Socket ps2 chassis indus noir ,15,2018,3,3,45
Souris LOGITEC USB,2,2016,"4,35","4,35","8,7"
SPILTTER HDMI 4K 1X2 PORT,1,2017,"56,83","56,83","56,83"
SSD KINGSTON 120GB ,7,2018,"27,98","27,98","195,86"
SSD 120 GB PANEL CLIMATS,2,2017,"66,31","66,31","132,62"
SSD  860 PRO sata  256 GB (KUKA),2,2018,"90,39","90,39","180,78"
SSD KINGSTON SUV300S37A/120G ,4,2018,"35,01","35,01","140,04"
"ST-133 ATA133 FAN, ALU, IDE, BEIGE",6,2017,"9,76","9,76","58,56"
STARTECH.COM PCISATA4R1 ,1,2015,"34,51","34,51","34,51"
Support de fixation pour SSD/HDD,10,2018,"4,15","4,15","41,5"
systéme dual lock 3550,1,2018,"26,4","26,4","26,4"
"Tablette ARC-M116 11,6"" win 8-1",1,2014,"534,69",500,500
TEK 4kDS-1 4K2K HDMI 1x2 SPLITTER DOWNSCALER/AUDIO EXTRACTOR,2,2017,285,285,570
TONER BLACK IMPRIMANTE HP MFP,2,2016,24,24,48
TONER BLACK IMPRIMANTE HP WIFI,1,2016,"50,56","50,56","50,56"
TONER BLACK 953XL,2,2018,"30,55","30,55","61,1"
TONER COULEUR IMPRIMANTE HP MFP,10,2016,"25,88","25,88","258,8"
TONER COULEUR IMPRIMANTE HP WIFI,1,2016,"25,88","25,88","25,88"
TONER COULEUR 953XL,6,2018,"20,79","20,79","124,74"
TPD2EUSB30ADRTR composants SAC CGX,15,2016,"0,436","0,436","6,54"
TUBE CARRE ACIER 40X40,1,2015,45,45,45
TUBE CARRE ALU 50X50,1,2015,75,75,75
"TUBE ROND 30 MM LG 2,50M AVEC PALIERS",2,2015,75,75,150
"usb to bluetooth 2,1 adaptateur class 2",3,2018,25,25,75
VENTILATEUR 4650N 240 VAC,2,2016,"29,69","29,69","59,38"
Ventilateur 90W pour chassis 1U,5,2017,39,39,195
VENTILO 1297 Cooler P199G Intel Pentium 775 - 1U,8,2017,"19,9","19,9","159,2"
VENTILO 1U 90W,5,2017,39,39,195
Ventilo toute taille ,100,2018,"7,5","7,5",750
VENTILO K199G Intel 1155/1156 - 1U RoHS,1,2016,24,24,24
VENTILO P199G Intel Pentium 775 - 1U RoHS,3,2017,,,0
VIA S TETE CYLINDRIQUE BOMBEE M4x12 (sac de 100),"0,6",2017,"3,65","3,65","2,19"
"Vis à 6 pans creux BZP, M4x10",1,2016,"43,29","43,29","43,29"
VIS A RONDELLE M3,185,2016,"0,03","0,03","5,55"
VIS A RONDELLE M3X20,110,2016,"0,01","0,01","1,1"
VIS A RONDELLES M4X10,250,2016,"0,007","0,007","1,75"
vis à téte bombée M6 boite de 100,2,2018,,,
Vis à tête 6 pans  noire M8X80mm,1,2016,35,35,35
Vis à tête 6 pans creux noire M8x30mm,1,2016,"21,44","21,44","21,44"
Vis à tête 6 pans creux noire M8X45mm,1,2016,"29,56","29,56","29,56"
VIS A TETE 6 PANS CREUX NOIRE M8x70mm (boite de 50),"0,6",2017,"23,74","23,74","14,244"
VIS À TÊTE BOMBÉ M2.5X16,136,2016,"0,087","0,087","11,832"
VIS ACIER M3X30 (Lot de 100),2,2016,"4,39","4,39","8,78"
Vis acier noir M4x6mm,1,2016,"4,68","4,68","4,68"
VIS ACIER NOIRE M4X10 sachet de 100,4,2016,"4,1","4,1","16,4"
VIS INOX A4 M4X20,148,2013,"0,1","0,1","14,8"
VIS INOX M 3X20,119,2016,"0,1","0,1","11,9"
"VIS M 2,5 X 20",24,2015,"0,02","0,02","0,48"
VIS M 3X25 INOX,78,2015,"0,02","0,02","1,56"
VIS M3 X 6 Noir sac de 100,2,2018,"3,6","3,6","7,2"
VIS M3 X 10 sac de 100,2,2018,"3,6","3,6","7,2"
VIS M 3X6,77,2016,"0,11","0,11","8,47"
VIS M3 X 20,55,2016,"0,02","0,02","1,1"
VIS M3 X 30,46,2016,"0,03","0,03","1,38"
VIS M3X10 zinguées,1,2016,"2,16","2,16","2,16"
VIS M4 X 6 zin sac de 100,2,2018,"4,62","4,62","9,24"
VIS M4 X 6  sac de 100,2,2018,"4,8","4,8","9,6"
VIS M4 X 10  sac de 100,2,2018,"5,22","5,22","10,44"
VIS M4 X 30,37,2016,"0,04","0,04","1,48"
"VIS METAL TETE FRAISEE A FENTE M2,5X6MM",1,2016,"3,17","3,17","3,17"
Visserie divers Inox,150,2015,"0,85","0,85","127,5"
VISSERIE INOX M6,85,2016,"0,299","0,299","25,415"
Win 10,2,2018,,,
WIRE JUMPERS MALE TO FEMALE 10pcs,2,2017,"2,78","2,78","5,56"
WIRE JUMPERS MALE TO MALE 10pcs,2,2017,"2,78","2,78","5,56"
"XH-2,5mm LOOSE PIECE CONTACT 28-22 AWG",80,2017,"0,04","0,04","3,2"
,,,"204,343","16369,06762","48451,77062"
